Jack Strelich, Data Scientist - Introduction to R
…
Using R means running functions (analyses) on objects (data)

Create objects using the assignment operator (<-)1:

x <- 1/20

“Print” objects (display in console) by running their name:

x # Print x

[1] 0.05

workshop_data # Print (preview of) our data set

# A tibble: 300 × 7
      ID Condition Gender Major   SES Anxiety    RT
   <dbl> <chr>     <chr>  <chr> <dbl>   <dbl> <dbl>
 1     1 LowDose   M      Psyc      4      17   213
 2     2 LowDose   M      Hist      3      14   151
 3     3 LowDose   M      Psyc      4      16   189
 4     4 LowDose   M      Chem      1      17   240
 5     5 LowDose   F      Hist      1      17   195
 6     6 LowDose   M      Hist      1      19   187
 7     7 LowDose   M      Hist      3      19   237
 8     8 LowDose   M      Psyc      3      17   178
 9     9 LowDose   F      Psyc      2      19   217
10    10 LowDose   F      Psyc      2      17   179
# ℹ 290 more rows
…
Notice anything odd in our histograms?

Unusually high Anxiety score

Unusually low RT score

Filter data frames

Use filter() to select rows that meet specific conditions:

filter(workshop_data, Gender == "F") # All female participants

# A tibble: 155 × 7
      ID Condition Gender Major   SES Anxiety    RT
   <dbl> <chr>     <chr>  <chr> <dbl>   <dbl> <dbl>
 1     5 LowDose   F      Hist      1      17   195
 2     9 LowDose   F      Psyc      2      19   217
 3    10 LowDose   F      Psyc      2      17   179
 4    14 LowDose   F      Psyc      1      16   177
 5    15 LowDose   F      Psyc      3      15   212
 6    16 LowDose   F      Psyc      5      22   239
 7    19 LowDose   F      Psyc      2      16   129
 8    21 LowDose   F      Psyc      3      24   269
 9    22 LowDose   F      Psyc      4      17   177
10    23 LowDose   F      Hist      3      19   241
# ℹ 145 more rows

filter(workshop_data, Gender == "F", SES > 3) # Female AND high SES

# A tibble: 36 × 7
      ID Condition Gender Major   SES Anxiety    RT
   <dbl> <chr>     <chr>  <chr> <dbl>   <dbl> <dbl>
 1    16 LowDose   F      Psyc      5      22   239
 2    22 LowDose   F      Psyc      4      17   177
 3    32 LowDose   F      Hist      4      20   246
 4    67 LowDose   F      Psyc      4      13   164
 5    80 LowDose   F      Hist      4      17   165
 6    82 LowDose   F      Chem      4      19   238
 7    98 LowDose   F      Hist      4      22   279
 8   100 LowDose   F      Psyc      4      15   157
 9   105 HighDose  F      <NA>      4      14   156
10   109 HighDose  F      Chem      5      17   214
# ℹ 26 more rows

filter(workshop_data, Gender == "F" | SES > 3) # Female OR high SES

# A tibble: 183 × 7
      ID Condition Gender Major   SES Anxiety    RT
   <dbl> <chr>     <chr>  <chr> <dbl>   <dbl> <dbl>
 1     1 LowDose   M      Psyc      4      17   213
 2     3 LowDose   M      Psyc      4      16   189
 3     5 LowDose   F      Hist      1      17   195
 4     9 LowDose   F      Psyc      2      19   217
 5    10 LowDose   F      Psyc      2      17   179
 6    14 LowDose   F      Psyc      1      16   177
 7    15 LowDose   F      Psyc      3      15   212
 8    16 LowDose   F      Psyc      5      22   239
 9    19 LowDose   F      Psyc      2      16   129
10    21 LowDose   F      Psyc      3      24   269
# ℹ 173 more rows

You try it!

Filter our data set to include only:

Anxiety scores under 30

RT scores over 50

Check your work

filter(workshop_data, Anxiety < 30, RT >50)

# A tibble: 293 × 7
      ID Condition Gender Major   SES Anxiety    RT
   <dbl> <chr>     <chr>  <chr> <dbl>   <dbl> <dbl>
 1     1 LowDose   M      Psyc      4      17   213
 2     2 LowDose   M      Hist      3      14   151
 3     3 LowDose   M      Psyc      4      16   189
 4     4 LowDose   M      Chem      1      17   240
 5     5 LowDose   F      Hist      1      17   195
 6     6 LowDose   M      Hist      1      19   187
 7     7 LowDose   M      Hist      3      19   237
 8     8 LowDose   M      Psyc      3      17   178
 9     9 LowDose   F      Psyc      2      19   217
10    10 LowDose   F      Psyc      2      17   179
# ℹ 283 more rows
…
Compute new variables

Transform/create variables with mutate()

Let’s convert Anxiety to z-scores

# 
workshop_data_filtered <- mutate(workshop_data_filtered, 
                                 Anxiety_Z = as.vector(scale(Anxiety)))

workshop_data_filtered

# A tibble: 293 × 8
      ID Condition Gender Major   SES Anxiety    RT Anxiety_Z
   <dbl> <chr>     <chr>  <chr> <dbl>   <dbl> <dbl>     <dbl>
 1     1 LowDose   M      Psyc      4      17   213    0.361 
 2     2 LowDose   M      Hist      3      14   151   -0.483 
 3     3 LowDose   M      Psyc      4      16   189    0.0796
 4     4 LowDose   M      Chem      1      17   240    0.361 
 5     5 LowDose   F      Hist      1      17   195    0.361 
 6     6 LowDose   M      Hist      1      19   187    0.923 
 7     7 LowDose   M      Hist      3      19   237    0.923 
 8     8 LowDose   M      Psyc      3      17   178    0.361 
 9     9 LowDose   F      Psyc      2      19   217    0.923 
10    10 LowDose   F      Psyc      2      17   179    0.361 
# ℹ 283 more rows

You try it!

Convert RT to z-sores in a new variable called RT_Z

Check your work

workshop_data_filtered <- mutate(workshop_data_filtered, 
                                 RT_Z = as.vector(scale(RT)))

workshop_data_filtered

# A tibble: 293 × 9
      ID Condition Gender Major   SES Anxiety    RT Anxiety_Z   RT_Z
   <dbl> <chr>     <chr>  <chr> <dbl>   <dbl> <dbl>     <dbl>  <dbl>
 1     1 LowDose   M      Psyc      4      17   213    0.361   0.406
 2     2 LowDose   M      Hist      3      14   151   -0.483  -1.66 
 3     3 LowDose   M      Psyc      4      16   189    0.0796 -0.393
 4     4 LowDose   M      Chem      1      17   240    0.361   1.31 
 5     5 LowDose   F      Hist      1      17   195    0.361  -0.193
 6     6 LowDose   M      Hist      1      19   187    0.923  -0.460
 7     7 LowDose   M      Hist      3      19   237    0.923   1.21 
 8     8 LowDose   M      Psyc      3      17   178    0.361  -0.759
 9     9 LowDose   F      Psyc      2      19   217    0.923   0.539
10    10 LowDose   F      Psyc      2      17   179    0.361  -0.726
# ℹ 283 more rows

Select columns

Use select() to select columns:

# Individual columns, separated by commas
select(workshop_data_filtered, Condition, Major, Anxiety_Z)

# A tibble: 293 × 3
   Condition Major Anxiety_Z
   <chr>     <chr>     <dbl>
 1 LowDose   Psyc     0.361 
 2 LowDose   Hist    -0.483 
 3 LowDose   Psyc     0.0796
 4 LowDose   Chem     0.361 
 5 LowDose   Hist     0.361 
 6 LowDose   Hist     0.923 
 7 LowDose   Hist     0.923 
 8 LowDose   Psyc     0.361 
 9 LowDose   Psyc     0.923 
10 LowDose   Psyc     0.361 
# ℹ 283 more rows

# Range of columns, separated by colon
# v1:v5 = "from v1 to v5"
select(workshop_data_filtered, ID:Gender, RT:RT_Z)

# A tibble: 293 × 6
      ID Condition Gender    RT Anxiety_Z   RT_Z
   <dbl> <chr>     <chr>  <dbl>     <dbl>  <dbl>
 1     1 LowDose   M        213    0.361   0.406
 2     2 LowDose   M        151   -0.483  -1.66 
 3     3 LowDose   M        189    0.0796 -0.393
 4     4 LowDose   M        240    0.361   1.31 
 5     5 LowDose   F        195    0.361  -0.193
 6     6 LowDose   M        187    0.923  -0.460
 7     7 LowDose   M        237    0.923   1.21 
 8     8 LowDose   M        178    0.361  -0.759
 9     9 LowDose   F        217    0.923   0.539
10    10 LowDose   F        179    0.361  -0.726
# ℹ 283 more rows

You try it!

Select everything except Anxiety and RT

Remember to assign output to make changes stick!

Check your work

workshop_data_filtered <- select(workshop_data_filtered, ID:SES, Anxiety_Z:RT_Z)
workshop_data_filtered

# A tibble: 293 × 7
      ID Condition Gender Major   SES Anxiety_Z   RT_Z
   <dbl> <chr>     <chr>  <chr> <dbl>     <dbl>  <dbl>
 1     1 LowDose   M      Psyc      4    0.361   0.406
 2     2 LowDose   M      Hist      3   -0.483  -1.66 
 3     3 LowDose   M      Psyc      4    0.0796 -0.393
 4     4 LowDose   M      Chem      1    0.361   1.31 
 5     5 LowDose   F      Hist      1    0.361  -0.193
 6     6 LowDose   M      Hist      1    0.923  -0.460
 7     7 LowDose   M      Hist      3    0.923   1.21 
 8     8 LowDose   M      Psyc      3    0.361  -0.759
 9     9 LowDose   F      Psyc      2    0.923   0.539
10    10 LowDose   F      Psyc      2    0.361  -0.726
# ℹ 283 more rows
…
# Start with our "raw" data
workshop_data |>
  filter(Anxiety < 30, RT >50) |> 
  mutate(Anxiety_Z = as.vector(scale(Anxiety)),
         RT_Z = as.vector(scale(RT)),
         Condition = fct_relevel(Condition, "Control", "LowDose", "HighDose"),
         Gender = fct_recode(Gender, 
                           "Female" = "F",
                           "Male" = "M",
                           "Non-binary" = "N",
                           "Other" = "O"),
         Major = factor(Major)) |> 
  select(ID:SES, Anxiety_Z:RT_Z)

# A tibble: 293 × 7
      ID Condition Gender Major   SES Anxiety_Z   RT_Z
   <dbl> <fct>     <fct>  <fct> <dbl>     <dbl>  <dbl>
 1     1 LowDose   Male   Psyc      4    0.361   0.406
 2     2 LowDose   Male   Hist      3   -0.483  -1.66 
 3     3 LowDose   Male   Psyc      4    0.0796 -0.393
 4     4 LowDose   Male   Chem      1    0.361   1.31 
 5     5 LowDose   Female Hist      1    0.361  -0.193
 6     6 LowDose   Male   Hist      1    0.923  -0.460
 7     7 LowDose   Male   Hist      3    0.923   1.21 
 8     8 LowDose   Male   Psyc      3    0.361  -0.759
 9     9 LowDose   Female Psyc      2    0.923   0.539
10    10 LowDose   Female Psyc      2    0.361  -0.726
# ℹ 283 more rows

Recreates workshop_data_filtered!

workshop_data_filtered

# A tibble: 293 × 7
      ID Condition Gender Major   SES Anxiety_Z   RT_Z
   <dbl> <fct>     <fct>  <fct> <dbl>     <dbl>  <dbl>
 1     1 LowDose   Male   Psyc      4    0.361   0.406
 2     2 LowDose   Male   Hist      3   -0.483  -1.66 
 3     3 LowDose   Male   Psyc      4    0.0796 -0.393
 4     4 LowDose   Male   Chem      1    0.361   1.31 
 5     5 LowDose   Female Hist      1    0.361  -0.193
 6     6 LowDose   Male   Hist      1    0.923  -0.460
 7     7 LowDose   Male   Hist      3    0.923   1.21 
 8     8 LowDose   Male   Psyc      3    0.361  -0.759
 9     9 LowDose   Female Psyc      2    0.923   0.539
10    10 LowDose   Female Psyc      2    0.361  -0.726
# ℹ 283 more rows
…
What are our columns?

Let’s tidy it up!

Tidying data

Start by converting to long data:

tidy_dat <- pivot_longer(wide_data, # Which data set
                         cols = Introv_T1:Risktol_T3, # Which columns to restructure
                         names_to = "Measure", # New column of names
                         values_to = "Score") # New column of values
tidy_dat

# A tibble: 1,620 × 3
      ID Measure    Score
   <dbl> <chr>      <dbl>
 1     1 Introv_T1      3
 2     1 Introv_T2      2
 3     1 Introv_T3      9
 4     1 Risktol_T1     5
 5     1 Risktol_T2    10
 6     1 Risktol_T3     3
 7     2 Introv_T1      9
 8     2 Introv_T2      5
 9     2 Introv_T3      7
10     2 Risktol_T1     6
# ℹ 1,610 more rows

The Measure column combines the other two variables with time. Let’s make sure that each variable gets its own column; we’ll need to split the names in Measure into two parts.

tidy_dat <-  separate(tidy_dat, 
                      Measure, # Which col to split
                      sep = "_", # Which character to split at
                      into = c("Measure","Time"), # Names for new cols
                      remove = TRUE) # Get rid of the original col after

tidy_dat

# A tibble: 1,620 × 4
      ID Measure Time  Score
   <dbl> <chr>   <chr> <dbl>
 1     1 Introv  T1        3
 2     1 Introv  T2        2
 3     1 Introv  T3        9
 4     1 Risktol T1        5
 5     1 Risktol T2       10
 6     1 Risktol T3        3
 7     2 Introv  T1        9
 8     2 Introv  T2        5
 9     2 Introv  T3        7
10     2 Risktol T1        6
# ℹ 1,610 more rows

separate() separates columns at a given separator (e.g., _) OR position (e.g., seventh character). By default, it will treat any non-alphanumeric character as a separator (so we technically didn’t need to specify sep here).

The last step: Introv and Risktol share the same columns (Measure and Score). Solution: pivot wider with pivot_wider().

tidy_dat <- pivot_wider(tidy_dat,
                        names_from = Measure, # Where to get column names from
                        values_from = Score) # Where to get actual values from
tidy_dat

# A tibble: 810 × 4
      ID Time  Introv Risktol
   <dbl> <chr>  <dbl>   <dbl>
 1     1 T1         3       5
 2     1 T2         2      10
 3     1 T3         9       3
 4     2 T1         9       6
 5     2 T2         5      15
 6     2 T3         7      12
 7     3 T1         2      21
 8     3 T2         3      14
 9     3 T3         8      14
10     4 T1         5      18
# ℹ 800 more rows
…
Each variable (id, Gender, Time, Introv, Risktol) is its own column

Each observation is a row

Table represents a single type of observational unit (people)

A more streamlined approach

pivot_longer(wide_data,
             Introv_T1:Risktol_T3, # Specify columns to pivot
             names_sep = "_", # Parts of name are separated by underscore
             names_to = c(".value", "Time")) # 1st bit names new cols, 2nd bit gets named "Time"

# A tibble: 810 × 4
      ID Time  Introv Risktol
   <dbl> <chr>  <dbl>   <dbl>
 1     1 T1         3       5
 2     1 T2         2      10
 3     1 T3         9       3
 4     2 T1         9       6
 5     2 T2         5      15
 6     2 T3         7      12
 7     3 T1         2      21
 8     3 T2         3      14
 9     3 T3         8      14
10     4 T1         5      18
# ℹ 800 more rows
…
